^D:\DOWNLOADS\PROJECT\MYFRAMEWORK\ENGINE\FRAMEWORK\ANIMATION.CPP
/c /I"C:\USERS\ADMIN\DOWNLOADS\VCPKG\INSTALLED\X86-WINDOWS\INCLUDE" /ZI /JMC /nologo /W3 /WX- /diagnostics:column /sdl /Od /Oy- /D WIN32 /D _CRT_SECURE_NO_WARNINGS /D _DEBUG /D _LIB /D _UNICODE /D UNICODE /Gm- /EHsc /RTC1 /MDd /GS /fp:precise /Zc:wchar_t /Zc:forScope /Zc:inline /Fo"DEBUG\\" /Fd"DEBUG\ENGINE.PDB" /Gd /TP /analyze- /FC D:\DOWNLOADS\PROJECT\MYFRAMEWORK\ENGINE\FRAMEWORK\ANIMATION.CPP
^D:\DOWNLOADS\PROJECT\MYFRAMEWORK\ENGINE\FRAMEWORK\DEVICEMANAGER.CPP
/c /I"C:\USERS\ADMIN\DOWNLOADS\VCPKG\INSTALLED\X86-WINDOWS\INCLUDE" /ZI /JMC /nologo /W3 /WX- /diagnostics:column /sdl /Od /Oy- /D WIN32 /D _CRT_SECURE_NO_WARNINGS /D _DEBUG /D _LIB /D _UNICODE /D UNICODE /Gm- /EHsc /RTC1 /MDd /GS /fp:precise /Zc:wchar_t /Zc:forScope /Zc:inline /Fo"DEBUG\\" /Fd"DEBUG\ENGINE.PDB" /Gd /TP /analyze- /FC D:\DOWNLOADS\PROJECT\MYFRAMEWORK\ENGINE\FRAMEWORK\DEVICEMANAGER.CPP
^D:\DOWNLOADS\PROJECT\MYFRAMEWORK\ENGINE\FRAMEWORK\DXAUDIO.CPP
/c /I"C:\USERS\ADMIN\DOWNLOADS\VCPKG\INSTALLED\X86-WINDOWS\INCLUDE" /ZI /JMC /nologo /W3 /WX- /diagnostics:column /sdl /Od /Oy- /D WIN32 /D _CRT_SECURE_NO_WARNINGS /D _DEBUG /D _LIB /D _UNICODE /D UNICODE /Gm- /EHsc /RTC1 /MDd /GS /fp:precise /Zc:wchar_t /Zc:forScope /Zc:inline /Fo"DEBUG\\" /Fd"DEBUG\ENGINE.PDB" /Gd /TP /analyze- /FC D:\DOWNLOADS\PROJECT\MYFRAMEWORK\ENGINE\FRAMEWORK\DXAUDIO.CPP
^D:\DOWNLOADS\PROJECT\MYFRAMEWORK\ENGINE\FRAMEWORK\GAMETIME.CPP
/c /I"C:\USERS\ADMIN\DOWNLOADS\VCPKG\INSTALLED\X86-WINDOWS\INCLUDE" /ZI /JMC /nologo /W3 /WX- /diagnostics:column /sdl /Od /Oy- /D WIN32 /D _CRT_SECURE_NO_WARNINGS /D _DEBUG /D _LIB /D _UNICODE /D UNICODE /Gm- /EHsc /RTC1 /MDd /GS /fp:precise /Zc:wchar_t /Zc:forScope /Zc:inline /Fo"DEBUG\\" /Fd"DEBUG\ENGINE.PDB" /Gd /TP /analyze- /FC D:\DOWNLOADS\PROJECT\MYFRAMEWORK\ENGINE\FRAMEWORK\GAMETIME.CPP
^D:\DOWNLOADS\PROJECT\MYFRAMEWORK\ENGINE\FRAMEWORK\GRAPHICS.CPP
/c /I"C:\USERS\ADMIN\DOWNLOADS\VCPKG\INSTALLED\X86-WINDOWS\INCLUDE" /ZI /JMC /nologo /W3 /WX- /diagnostics:column /sdl /Od /Oy- /D WIN32 /D _CRT_SECURE_NO_WARNINGS /D _DEBUG /D _LIB /D _UNICODE /D UNICODE /Gm- /EHsc /RTC1 /MDd /GS /fp:precise /Zc:wchar_t /Zc:forScope /Zc:inline /Fo"DEBUG\\" /Fd"DEBUG\ENGINE.PDB" /Gd /TP /analyze- /FC D:\DOWNLOADS\PROJECT\MYFRAMEWORK\ENGINE\FRAMEWORK\GRAPHICS.CPP
^D:\DOWNLOADS\PROJECT\MYFRAMEWORK\ENGINE\FRAMEWORK\SCENE.CPP
/c /I"C:\USERS\ADMIN\DOWNLOADS\VCPKG\INSTALLED\X86-WINDOWS\INCLUDE" /ZI /JMC /nologo /W3 /WX- /diagnostics:column /sdl /Od /Oy- /D WIN32 /D _CRT_SECURE_NO_WARNINGS /D _DEBUG /D _LIB /D _UNICODE /D UNICODE /Gm- /EHsc /RTC1 /MDd /GS /fp:precise /Zc:wchar_t /Zc:forScope /Zc:inline /Fo"DEBUG\\" /Fd"DEBUG\ENGINE.PDB" /Gd /TP /analyze- /FC D:\DOWNLOADS\PROJECT\MYFRAMEWORK\ENGINE\FRAMEWORK\SCENE.CPP
^D:\DOWNLOADS\PROJECT\MYFRAMEWORK\ENGINE\FRAMEWORK\SOUNDMANAGER.CPP
/c /I"C:\USERS\ADMIN\DOWNLOADS\VCPKG\INSTALLED\X86-WINDOWS\INCLUDE" /ZI /JMC /nologo /W3 /WX- /diagnostics:column /sdl /Od /Oy- /D WIN32 /D _CRT_SECURE_NO_WARNINGS /D _DEBUG /D _LIB /D _UNICODE /D UNICODE /Gm- /EHsc /RTC1 /MDd /GS /fp:precise /Zc:wchar_t /Zc:forScope /Zc:inline /Fo"DEBUG\\" /Fd"DEBUG\ENGINE.PDB" /Gd /TP /analyze- /FC D:\DOWNLOADS\PROJECT\MYFRAMEWORK\ENGINE\FRAMEWORK\SOUNDMANAGER.CPP
^D:\DOWNLOADS\PROJECT\MYFRAMEWORK\ENGINE\FRAMEWORK\SPRITE.CPP
/c /I"C:\USERS\ADMIN\DOWNLOADS\VCPKG\INSTALLED\X86-WINDOWS\INCLUDE" /ZI /JMC /nologo /W3 /WX- /diagnostics:column /sdl /Od /Oy- /D WIN32 /D _CRT_SECURE_NO_WARNINGS /D _DEBUG /D _LIB /D _UNICODE /D UNICODE /Gm- /EHsc /RTC1 /MDd /GS /fp:precise /Zc:wchar_t /Zc:forScope /Zc:inline /Fo"DEBUG\\" /Fd"DEBUG\ENGINE.PDB" /Gd /TP /analyze- /FC D:\DOWNLOADS\PROJECT\MYFRAMEWORK\ENGINE\FRAMEWORK\SPRITE.CPP
^D:\DOWNLOADS\PROJECT\MYFRAMEWORK\ENGINE\FRAMEWORK\SPRITEMANAGER.CPP
/c /I"C:\USERS\ADMIN\DOWNLOADS\VCPKG\INSTALLED\X86-WINDOWS\INCLUDE" /ZI /JMC /nologo /W3 /WX- /diagnostics:column /sdl /Od /Oy- /D WIN32 /D _CRT_SECURE_NO_WARNINGS /D _DEBUG /D _LIB /D _UNICODE /D UNICODE /Gm- /EHsc /RTC1 /MDd /GS /fp:precise /Zc:wchar_t /Zc:forScope /Zc:inline /Fo"DEBUG\\" /Fd"DEBUG\ENGINE.PDB" /Gd /TP /analyze- /FC D:\DOWNLOADS\PROJECT\MYFRAMEWORK\ENGINE\FRAMEWORK\SPRITEMANAGER.CPP
^D:\DOWNLOADS\PROJECT\MYFRAMEWORK\ENGINE\FRAMEWORK\STAGEMANAGER.CPP
/c /I"C:\USERS\ADMIN\DOWNLOADS\VCPKG\INSTALLED\X86-WINDOWS\INCLUDE" /ZI /JMC /nologo /W3 /WX- /diagnostics:column /sdl /Od /Oy- /D WIN32 /D _CRT_SECURE_NO_WARNINGS /D _DEBUG /D _LIB /D _UNICODE /D UNICODE /Gm- /EHsc /RTC1 /MDd /GS /fp:precise /Zc:wchar_t /Zc:forScope /Zc:inline /Fo"DEBUG\\" /Fd"DEBUG\ENGINE.PDB" /Gd /TP /analyze- /FC D:\DOWNLOADS\PROJECT\MYFRAMEWORK\ENGINE\FRAMEWORK\STAGEMANAGER.CPP
^D:\DOWNLOADS\PROJECT\MYFRAMEWORK\ENGINE\FRAMEWORK\STOPWATCH.CPP
/c /I"C:\USERS\ADMIN\DOWNLOADS\VCPKG\INSTALLED\X86-WINDOWS\INCLUDE" /ZI /JMC /nologo /W3 /WX- /diagnostics:column /sdl /Od /Oy- /D WIN32 /D _CRT_SECURE_NO_WARNINGS /D _DEBUG /D _LIB /D _UNICODE /D UNICODE /Gm- /EHsc /RTC1 /MDd /GS /fp:precise /Zc:wchar_t /Zc:forScope /Zc:inline /Fo"DEBUG\\" /Fd"DEBUG\ENGINE.PDB" /Gd /TP /analyze- /FC D:\DOWNLOADS\PROJECT\MYFRAMEWORK\ENGINE\FRAMEWORK\STOPWATCH.CPP
^D:\DOWNLOADS\PROJECT\MYFRAMEWORK\ENGINE\FRAMEWORK\TEXT.CPP
/c /I"C:\USERS\ADMIN\DOWNLOADS\VCPKG\INSTALLED\X86-WINDOWS\INCLUDE" /ZI /JMC /nologo /W3 /WX- /diagnostics:column /sdl /Od /Oy- /D WIN32 /D _CRT_SECURE_NO_WARNINGS /D _DEBUG /D _LIB /D _UNICODE /D UNICODE /Gm- /EHsc /RTC1 /MDd /GS /fp:precise /Zc:wchar_t /Zc:forScope /Zc:inline /Fo"DEBUG\\" /Fd"DEBUG\ENGINE.PDB" /Gd /TP /analyze- /FC D:\DOWNLOADS\PROJECT\MYFRAMEWORK\ENGINE\FRAMEWORK\TEXT.CPP
^D:\DOWNLOADS\PROJECT\MYFRAMEWORK\ENGINE\FRAMEWORK\TEXTURE.CPP
/c /I"C:\USERS\ADMIN\DOWNLOADS\VCPKG\INSTALLED\X86-WINDOWS\INCLUDE" /ZI /JMC /nologo /W3 /WX- /diagnostics:column /sdl /Od /Oy- /D WIN32 /D _CRT_SECURE_NO_WARNINGS /D _DEBUG /D _LIB /D _UNICODE /D UNICODE /Gm- /EHsc /RTC1 /MDd /GS /fp:precise /Zc:wchar_t /Zc:forScope /Zc:inline /Fo"DEBUG\\" /Fd"DEBUG\ENGINE.PDB" /Gd /TP /analyze- /FC D:\DOWNLOADS\PROJECT\MYFRAMEWORK\ENGINE\FRAMEWORK\TEXTURE.CPP
^D:\DOWNLOADS\PROJECT\MYFRAMEWORK\ENGINE\FRAMEWORK\TIMESPAN.CPP
/c /I"C:\USERS\ADMIN\DOWNLOADS\VCPKG\INSTALLED\X86-WINDOWS\INCLUDE" /ZI /JMC /nologo /W3 /WX- /diagnostics:column /sdl /Od /Oy- /D WIN32 /D _CRT_SECURE_NO_WARNINGS /D _DEBUG /D _LIB /D _UNICODE /D UNICODE /Gm- /EHsc /RTC1 /MDd /GS /fp:precise /Zc:wchar_t /Zc:forScope /Zc:inline /Fo"DEBUG\\" /Fd"DEBUG\ENGINE.PDB" /Gd /TP /analyze- /FC D:\DOWNLOADS\PROJECT\MYFRAMEWORK\ENGINE\FRAMEWORK\TIMESPAN.CPP
^D:\DOWNLOADS\PROJECT\MYFRAMEWORK\ENGINE\FRAMEWORK\TRANSFORMABLE.CPP
/c /I"C:\USERS\ADMIN\DOWNLOADS\VCPKG\INSTALLED\X86-WINDOWS\INCLUDE" /ZI /JMC /nologo /W3 /WX- /diagnostics:column /sdl /Od /Oy- /D WIN32 /D _CRT_SECURE_NO_WARNINGS /D _DEBUG /D _LIB /D _UNICODE /D UNICODE /Gm- /EHsc /RTC1 /MDd /GS /fp:precise /Zc:wchar_t /Zc:forScope /Zc:inline /Fo"DEBUG\\" /Fd"DEBUG\ENGINE.PDB" /Gd /TP /analyze- /FC D:\DOWNLOADS\PROJECT\MYFRAMEWORK\ENGINE\FRAMEWORK\TRANSFORMABLE.CPP
^D:\DOWNLOADS\PROJECT\MYFRAMEWORK\ENGINE\FRAMEWORK\UTILS.CPP
/c /I"C:\USERS\ADMIN\DOWNLOADS\VCPKG\INSTALLED\X86-WINDOWS\INCLUDE" /ZI /JMC /nologo /W3 /WX- /diagnostics:column /sdl /Od /Oy- /D WIN32 /D _CRT_SECURE_NO_WARNINGS /D _DEBUG /D _LIB /D _UNICODE /D UNICODE /Gm- /EHsc /RTC1 /MDd /GS /fp:precise /Zc:wchar_t /Zc:forScope /Zc:inline /Fo"DEBUG\\" /Fd"DEBUG\ENGINE.PDB" /Gd /TP /analyze- /FC D:\DOWNLOADS\PROJECT\MYFRAMEWORK\ENGINE\FRAMEWORK\UTILS.CPP
^D:\DOWNLOADS\PROJECT\MYFRAMEWORK\ENGINE\FRAMEWORK\VIEWPORT.CPP
/c /I"C:\USERS\ADMIN\DOWNLOADS\VCPKG\INSTALLED\X86-WINDOWS\INCLUDE" /ZI /JMC /nologo /W3 /WX- /diagnostics:column /sdl /Od /Oy- /D WIN32 /D _CRT_SECURE_NO_WARNINGS /D _DEBUG /D _LIB /D _UNICODE /D UNICODE /Gm- /EHsc /RTC1 /MDd /GS /fp:precise /Zc:wchar_t /Zc:forScope /Zc:inline /Fo"DEBUG\\" /Fd"DEBUG\ENGINE.PDB" /Gd /TP /analyze- /FC D:\DOWNLOADS\PROJECT\MYFRAMEWORK\ENGINE\FRAMEWORK\VIEWPORT.CPP
^D:\DOWNLOADS\PROJECT\MYFRAMEWORK\ENGINE\FRAMEWORK\SCENEMANAGER.CPP
/c /I"C:\USERS\ADMIN\DOWNLOADS\VCPKG\INSTALLED\X86-WINDOWS\INCLUDE" /ZI /JMC /nologo /W3 /WX- /diagnostics:column /sdl /Od /Oy- /D WIN32 /D _CRT_SECURE_NO_WARNINGS /D _DEBUG /D _LIB /D _UNICODE /D UNICODE /Gm- /EHsc /RTC1 /MDd /GS /fp:precise /Zc:wchar_t /Zc:forScope /Zc:inline /Fo"DEBUG\\" /Fd"DEBUG\ENGINE.PDB" /Gd /TP /analyze- /FC D:\DOWNLOADS\PROJECT\MYFRAMEWORK\ENGINE\FRAMEWORK\SCENEMANAGER.CPP
^D:\DOWNLOADS\PROJECT\MYFRAMEWORK\ENGINE\FRAMEWORK\ICOMPONENT.CPP
/c /I"C:\USERS\ADMIN\DOWNLOADS\VCPKG\INSTALLED\X86-WINDOWS\INCLUDE" /ZI /JMC /nologo /W3 /WX- /diagnostics:column /sdl /Od /Oy- /D WIN32 /D _CRT_SECURE_NO_WARNINGS /D _DEBUG /D _LIB /D _UNICODE /D UNICODE /Gm- /EHsc /RTC1 /MDd /GS /fp:precise /Zc:wchar_t /Zc:forScope /Zc:inline /Fo"DEBUG\\" /Fd"DEBUG\ENGINE.PDB" /Gd /TP /analyze- /FC D:\DOWNLOADS\PROJECT\MYFRAMEWORK\ENGINE\FRAMEWORK\ICOMPONENT.CPP
^D:\DOWNLOADS\PROJECT\MYFRAMEWORK\ENGINE\FRAMEWORK\EVENT.CPP
/c /I"C:\USERS\ADMIN\DOWNLOADS\VCPKG\INSTALLED\X86-WINDOWS\INCLUDE" /ZI /JMC /nologo /W3 /WX- /diagnostics:column /sdl /Od /Oy- /D WIN32 /D _CRT_SECURE_NO_WARNINGS /D _DEBUG /D _LIB /D _UNICODE /D UNICODE /Gm- /EHsc /RTC1 /MDd /GS /fp:precise /Zc:wchar_t /Zc:forScope /Zc:inline /Fo"DEBUG\\" /Fd"DEBUG\ENGINE.PDB" /Gd /TP /analyze- /FC D:\DOWNLOADS\PROJECT\MYFRAMEWORK\ENGINE\FRAMEWORK\EVENT.CPP
^D:\DOWNLOADS\PROJECT\MYFRAMEWORK\ENGINE\FRAMEWORK\INPUTCONTROLLER.CPP
/c /I"C:\USERS\ADMIN\DOWNLOADS\VCPKG\INSTALLED\X86-WINDOWS\INCLUDE" /ZI /JMC /nologo /W3 /WX- /diagnostics:column /sdl /Od /Oy- /D WIN32 /D _CRT_SECURE_NO_WARNINGS /D _DEBUG /D _LIB /D _UNICODE /D UNICODE /Gm- /EHsc /RTC1 /MDd /GS /fp:precise /Zc:wchar_t /Zc:forScope /Zc:inline /Fo"DEBUG\\" /Fd"DEBUG\ENGINE.PDB" /Gd /TP /analyze- /FC D:\DOWNLOADS\PROJECT\MYFRAMEWORK\ENGINE\FRAMEWORK\INPUTCONTROLLER.CPP
